{
  "name": "tasplanner",
  "version": "0.0.1",
  "factorio_version": "0.15",
  "title": "TAS Planner",
  "author": "blueblue",
  "description": "Utility we use to plan a TAS.",
  "dependencies": ["base >= 0.15.0"]
}
